{
    "legacy_addon_id": "",
    "title": "[AnzahTools] Status Indicator",
    "description": "",
    "version_id": 1030170,
    "version_string": "1.3.1",
    "dev": "AnzahTools",
    "dev_url": "https://anzah.tools",
    "faq_url": "",
    "support_url": "https://xenforo.com/community/resources/status-indicator.6671",
    "extra_urls": [],
    "require": {
        "XF": [
            2010010,
            "XenForo 2.1.0+"
        ],
        "php": [
            "5.6.0",
            "PHP 5.6.0+"
        ]
    },
    "icon": "fa-battery-quarter"
}