{
    "template": "thread_list_macros",
    "description": "Add status classes",
    "execution_order": 10,
    "enabled": true,
    "action": "str_replace",
    "find": "<div class=\"structItem-iconContainer\">\n\t\t\t\t<xf:avatar user=\"$thread.User\" size=\"s\" defaultname=\"{$thread.username}\" />",
    "replace": "<xf:if is=\"$thread.User AND $thread.User.isOnline() AND property('at_si_online_indicator')\">\n\t\t\t\t\t<div class=\"structItem-iconContainer status_indicator si_thread_list_macros status_indicator--online\">\n\t\t\t\t<xf:elseif is=\"$thread.User AND !$thread.User.visible AND $xf.visitor.canBypassUserPrivacy() AND property('at_si_invisible_indicator')\" />\n\t\t\t\t\t<div class=\"structItem-iconContainer status_indicator  si_thread_list_macros status_indicator--invisible\">\n\t\t\t\t<xf:elseif is=\"$thread.User AND !$thread.User.isOnline() AND property('at_si_offline_indicator')\" />\n\t\t\t\t\t<div class=\"structItem-iconContainer status_indicator  si_thread_list_macros status_indicator--offline\">\n\t\t\t\t<xf:else />\n\t\t\t\t\t\t<div class=\"structItem-iconContainer status_indicator si_member_tooltip status_indicator--error\">\n\t\t\t\t</xf:if>\n\t\t\t\t<xf:avatar user=\"$thread.User\" size=\"s\" defaultname=\"{$thread.username}\" />"
}