{
    "group_name": "at_si_property_group",
    "title": "Image - Online",
    "description": "",
    "property_type": "css",
    "css_components": [
        "text",
        "background",
        "border",
        "border_radius",
        "padding",
        "extra"
    ],
    "value_type": "",
    "value_parameters": "",
    "depends_on": "",
    "value_group": "",
    "property_value": {
        "background-image": "@xf-statusindicator_online_img_path"
    },
    "display_order": 2
}