{
    "group_name": "at_si_property_group",
    "title": "Offline image",
    "description": "",
    "property_type": "value",
    "css_components": [],
    "value_type": "string",
    "value_parameters": "",
    "depends_on": "",
    "value_group": "image",
    "property_value": "",
    "display_order": 42
}